COVID-19-related Mobility Data from Apple and Google • covmobility
…
apple_mobility %>%
  filter(region == "New York City", transportation_type == "walking")
#> # A tibble: 263 x 8
#>    geo_type region transportation_… alternative_name sub_region country
#>    <chr>    <chr>  <chr>            <chr>            <chr>      <chr>  
#>  1 city     New Y… walking          NYC              New York   United…
#>  2 city     New Y… walking          NYC              New York   United…
#>  3 city     New Y… walking          NYC              New York   United…
#>  4 city     New Y… walking          NYC              New York   United…
#>  5 city     New Y… walking          NYC              New York   United…
#>  6 city     New Y… walking          NYC              New York   United…
#>  7 city     New Y… walking          NYC              New York   United…
#>  8 city     New Y… walking          NYC              New York   United…
#>  9 city     New Y… walking          NYC              New York   United…
#> 10 city     New Y… walking          NYC              New York   United…
#> # … with 253 more rows, and 2 more variables: date <date>, score <dbl>
…
