Get Started with covmobility • covmobility
…
Exploring the Data

Individual datasets are documented on their help pages. The documentation includes details on properly citing the source of the data and, in some cases, the terms of use under which it is provided.

Caveat Emptor

The data are provided as-is. More information about collection methods, scope, limits, and possible sources of error in the data can be found in the documentation provided by their respective sources.

Apple’s Mobility Data

Apple has made aggregated data available on relative trends in use of its Maps data across a range of cities, regions, and countries. Data show relative volume of directions requests per country/region or city compared to a baseline volume on January 13th, 2020. Apple defines the day as midnight-to-midnight, Pacific time. Cities represent usage in greater metropolitan areas and are stably defined during this period. In many countries/regions and cities, relative volume has increased since January 13th, consistent with normal, seasonal usage of Apple Maps. Day of week effects are important to normalize as you use this data. Data that is sent from users’ devices to the Apple Maps service is associated with random, rotating identifiers so Apple does not have a profile of individual movements and searches. Apple Maps has no demographic information about its users, and so cannot make any statements about the representativeness of its usage against the overall population.

apple_mobility
#> # A tibble: 1,351,008 x 8
#>    geo_type region transportation_… alternative_name sub_region country
#>    <chr>    <chr>  <chr>            <chr>            <chr>      <chr>  
#>  1 country… Alban… driving          <NA>             <NA>       <NA>   
#>  2 country… Alban… driving          <NA>             <NA>       <NA>   
#>  3 country… Alban… driving          <NA>             <NA>       <NA>   
#>  4 country… Alban… driving          <NA>             <NA>       <NA>   
#>  5 country… Alban… driving          <NA>             <NA>       <NA>   
#>  6 country… Alban… driving          <NA>             <NA>       <NA>   
#>  7 country… Alban… driving          <NA>             <NA>       <NA>   
#>  8 country… Alban… driving          <NA>             <NA>       <NA>   
#>  9 country… Alban… driving          <NA>             <NA>       <NA>   
#> 10 country… Alban… driving          <NA>             <NA>       <NA>   
#> # … with 1,350,998 more rows, and 2 more variables: date <date>, score <dbl>
…
Google’s Mobility Reports

These Community Mobility Reports aim to provide insights into what has changed in response to policies aimed at combating COVID-19. The reports chart movement trends over time by geography, across different categories of places such as retail and recreation, groceries and pharmacies, parks, transit stations, workplaces, and residential. Each Community Mobility Report dataset is presented by location and highlights the percent change in visits to places like grocery stores and parks within a geographic area. These datasets show how visits and length of stay at different places change compared to a baseline. Changes for each day are compared to a baseline value for that day of the week:

The baseline is the median value, for the corresponding day of the week, during the 5-week period Jan 3–Feb 6, 2020.

The datasets show trends over several months.

What data is included in the calculation depends on user settings, connectivity, and whether it meets Google’s privacy threshold. If the privacy threshold isn’t met (when somewhere isn’t busy enough to ensure anonymity) no change is shown for the day.

google_mobility
#> # A tibble: 16,849,620 x 10
#>    country_region_… country_region sub_region_1 sub_region_2 metro_area
#>    <chr>            <chr>          <chr>        <chr>        <chr>     
#>  1 AE               United Arab E… <NA>         <NA>         <NA>      
#>  2 AE               United Arab E… <NA>         <NA>         <NA>      
#>  3 AE               United Arab E… <NA>         <NA>         <NA>      
#>  4 AE               United Arab E… <NA>         <NA>         <NA>      
#>  5 AE               United Arab E… <NA>         <NA>         <NA>      
#>  6 AE               United Arab E… <NA>         <NA>         <NA>      
#>  7 AE               United Arab E… <NA>         <NA>         <NA>      
#>  8 AE               United Arab E… <NA>         <NA>         <NA>      
#>  9 AE               United Arab E… <NA>         <NA>         <NA>      
#> 10 AE               United Arab E… <NA>         <NA>         <NA>      
#> # … with 16,849,610 more rows, and 5 more variables: iso3166_2 <chr>,
#> #   census_fips_code <chr>, date <date>, type <chr>, pct_diff <int>
…
